

{
    "content": [
        {
            "uid": "4609",
            "categoryName": "전문가양성",
            "name": "생활지원사&병원동행매니저 전문과정 1급(주간)",
            "teacherName": null,
            "maxPeople": 15,
            "freeStatus": false,
            "localPrice": 100000,
            "externalPrice": 200000,
            "recruitStart": "2026-02-04 09:17:41.0",
            "recruitEnd": "2026-03-04 09:17:50.0",
            "classStart": "2026-03-09",
            "classEnd": "2026-05-11",
            "classStartTime": "10:00:00",
            "classEndTime": "13:00:00",
            "currentPeople": 7,
            "status": 0,
            "imageUid": null,
            "due": 40,
            "classDay": [
                1
            ]
        },
        {
            "uid": "4596",
            "categoryName": "전문가양성",
            "name": "사주심리상담사 중급(주간)",
            "teacherName": "강인숙",
            "maxPeople": 15,
            "freeStatus": false,
            "localPrice": 180000,
            "externalPrice": 280000,
            "recruitStart": "2026-02-04 00:00:00.0",
            "recruitEnd": "2026-03-05 00:00:00.0",
            "classStart": "2026-03-12",
            "classEnd": "2026-06-18",
            "classStartTime": "10:00:00",
            "classEndTime": "12:30:00",
            "currentPeople": 7,
            "status": 0,
            "imageUid": null,
            "due": 41,
            "classDay": [
                4
            ]
        },
        {
            "uid": "4597",
            "categoryName": "전문가양성",
            "name": "사주를 알면 내가보인다-현대명리학(야간)",
            "teacherName": "강은경",
            "maxPeople": 15,
            "freeStatus": false,
            "localPrice": 180000,
            "externalPrice": 280000,
            "recruitStart": "2026-02-04 00:00:00.0",
            "recruitEnd": "2026-03-05 00:00:00.0",
            "classStart": "2026-03-12",
            "classEnd": "2026-05-28",
            "classStartTime": "19:00:00",
            "classEndTime": "21:30:00",
            "currentPeople": 14,
            "status": 0,
            "imageUid": null,
            "due": 41,
            "classDay": [
                4
            ]
        },
        {
            "uid": "4598",
            "categoryName": "전문가양성",
            "name": "사주를 알면 내가보인다-현대명리학(주간)",
            "teacherName": "강은경",
            "maxPeople": 15,
            "freeStatus": false,
            "localPrice": 180000,
            "externalPrice": 280000,
            "recruitStart": "2026-02-04 00:00:00.0",
            "recruitEnd": "2026-03-05 00:00:00.0",
            "classStart": "2026-03-12",
            "classEnd": "2026-05-29",
            "classStartTime": "10:00:00",
            "classEndTime": "12:30:00",
            "currentPeople": 4,
            "status": 0,
            "imageUid": null,
            "due": 41,
            "classDay": [
                4
            ]
        },
        {
            "uid": "4599",
            "categoryName": "전문가양성",
            "name": "타로-유니버셜웨이트(야간)",
            "teacherName": "강은경",
            "maxPeople": 15,
            "freeStatus": false,
            "localPrice": 150000,
            "externalPrice": 250000,
            "recruitStart": "2026-02-04 00:00:00.0",
            "recruitEnd": "2026-03-05 00:00:00.0",
            "classStart": "2026-03-10",
            "classEnd": "2026-05-26",
            "classStartTime": "19:00:00",
            "classEndTime": "21:30:00",
            "currentPeople": 9,
            "status": 0,
            "imageUid": null,
            "due": 41,
            "classDay": [
                2
            ]
        },
        {
            "uid": "4600",
            "categoryName": "전문가양성",
            "name": "타로-유니버셜웨이트(주간)",
            "teacherName": "강은경",
            "maxPeople": 15,
            "freeStatus": false,
            "localPrice": 150000,
            "externalPrice": 250000,
            "recruitStart": "2026-02-04 00:00:00.0",
            "recruitEnd": "2026-03-05 00:00:00.0",
            "classStart": "2026-03-10",
            "classEnd": "2026-05-26",
            "classStartTime": "10:00:00",
            "classEndTime": "12:30:00",
            "currentPeople": 4,
            "status": 0,
            "imageUid": null,
            "due": 41,
            "classDay": [
                2
            ]
        },
        {
            "uid": "4601",
            "categoryName": "전문가양성",
            "name": "푸드체질관리사",
            "teacherName": "김춘호",
            "maxPeople": 30,
            "freeStatus": false,
            "localPrice": 100000,
            "externalPrice": 200000,
            "recruitStart": "2026-02-04 00:00:00.0",
            "recruitEnd": "2026-03-05 00:00:00.0",
            "classStart": "2026-03-10",
            "classEnd": "2026-06-23",
            "classStartTime": "19:00:00",
            "classEndTime": "21:00:00",
            "currentPeople": 3,
            "status": 0,
            "imageUid": null,
            "due": 41,
            "classDay": [
                2
            ]
        },
        {
            "uid": "4602",
            "categoryName": "전문가양성",
            "name": "유튜브크리에이터 지도사",
            "teacherName": "빈형열",
            "maxPeople": 10,
            "freeStatus": false,
            "localPrice": 100000,
            "externalPrice": 200000,
            "recruitStart": "2026-02-04 00:00:00.0",
            "recruitEnd": "2026-03-05 00:00:00.0",
            "classStart": "2026-03-11",
            "classEnd": "2026-05-27",
            "classStartTime": "19:00:00",
            "classEndTime": "21:30:00",
            "currentPeople": 7,
            "status": 0,
            "imageUid": null,
            "due": 41,
            "classDay": [
                3
            ]
        },
        {
            "uid": "4608",
            "categoryName": "전문가양성",
            "name": "생활지원사&병원동행매니저 전문과정 1급(야간)",
            "teacherName": null,
            "maxPeople": 15,
            "freeStatus": false,
            "localPrice": 100000,
            "externalPrice": 200000,
            "recruitStart": "2026-02-04 00:00:00.0",
            "recruitEnd": "2026-03-05 09:32:39.0",
            "classStart": "2026-03-09",
            "classEnd": "2026-05-11",
            "classStartTime": "17:00:00",
            "classEndTime": "21:00:00",
            "currentPeople": 14,
            "status": 0,
            "imageUid": null,
            "due": 41,
            "classDay": [
                1
            ]
        },
        {
            "uid": "1566",
            "categoryName": "전문가양성",
            "name": "도형심리상담사(1급)",
            "teacherName": "서금주",
            "maxPeople": 20,
            "freeStatus": false,
            "localPrice": 120000,
            "externalPrice": 180000,
            "recruitStart": "2015-08-03 00:00:00.0",
            "recruitEnd": "2015-09-12 00:00:00.0",
            "classStart": "2015-08-31",
            "classEnd": "2015-12-12",
            "classStartTime": "10:30:00",
            "classEndTime": "12:30:00",
            "currentPeople": 6,
            "status": 4,
            "imageUid": null,
            "due": -3786,
            "classDay": [
                5
            ]
        }
    ],
    "pageable": {
        "sort": {
            "sorted": true,
            "empty": false,
            "unsorted": false
        },
        "pageNumber": 0,
        "pageSize": 10,
        "offset": 0,
        "paged": true,
        "unpaged": false
    },
    "totalPages": 21,
    "totalElements": 210,
    "last": false,
    "size": 10,
    "number": 0,
    "sort": {
        "sorted": true,
        "empty": false,
        "unsorted": false
    },
    "numberOfElements": 10,
    "first": true,
    "empty": false
}

